…
# Collect the results into R
weekly_counts_local <- weekly_counts %>% collect()

# View the aggregated weekly counts
print(weekly_counts_local)
```

##### Example Output: 
```r
# A tibble: 109 × 2
   period_start        num_records
   <dttm>                    <int>
 1 2022-05-30 00:00:00           8
 2 2022-06-06 00:00:00          15
 3 2022-06-13 00:00:00          31
 4 2022-06-20 00:00:00           7
 5 2022-06-27 00:00:00          14
 6 2022-07-04 00:00:00          30
 7 2022-07-11 00:00:00          26
 8 2022-07-18 00:00:00          10
 9 2022-07-25 00:00:00          12
10 2022-08-01 00:00:00           2
# ℹ 99 more rows
# ℹ Use `print(n = ...)` to see more rows
```
…
# Collect the results into R
monthly_counts_local <- monthly_counts %>% collect()

# View the aggregated monthly counts
print(monthly_counts_local)
```

##### Example Output: 
```r
# A tibble: 29 × 2
   period_start        num_records
   <dttm>                    <int>
 1 2022-06-01 00:00:00          70
 2 2022-07-01 00:00:00          83
 3 2022-08-01 00:00:00          29
 4 2022-09-01 00:00:00          48
 5 2022-10-01 00:00:00          65
 6 2022-11-01 00:00:00         171
 7 2022-12-01 00:00:00         192
 8 2023-01-01 00:00:00          20
 9 2023-02-01 00:00:00          31
10 2023-03-01 00:00:00          93
# ℹ 19 more rows
# ℹ Use `print(n = ...)` to see more rows
```
…
# Collect the results into R
weekly_sunday_counts_local <- weekly_sunday_counts %>% collect()

# View the aggregated weekly counts starting on Sunday
print(weekly_sunday_counts_local)
```

##### Example Output
```r
# A tibble: 109 × 2
   period_start        num_records
   <dttm>                    <int>
 1 2022-05-29 00:00:00           8
 2 2022-06-05 00:00:00          15
 3 2022-06-12 00:00:00          31
 4 2022-06-19 00:00:00           7
 5 2022-06-26 00:00:00          14
 6 2022-07-03 00:00:00          30
 7 2022-07-10 00:00:00          26
 8 2022-07-17 00:00:00          10
 9 2022-07-24 00:00:00          12
10 2022-07-31 00:00:00           2
# ℹ 99 more rows
# ℹ Use `print(n = ...)` to see more rows
```
…
        WHEN (`d_827220437` = '472940358') THEN 'BSWH'
        ELSE 'Other'
      END AS `site`,
      `d_564964481` AS `birth_month`
    FROM `FlatConnect.participants_JP`
    WHERE (NOT((`d_471593703` IS NULL)))
  ) `q01`
) `q01`
GROUP BY `period_start`, `site`, `birth_month`
ORDER BY `period_start`
Job complete
Billed: 10.49 MB
Downloading first chunk of data.
First chunk includes all requested rows.
# A tibble: 747 × 4
   period_start        site  birth_month num_records
   <dttm>              <chr> <chr>             <int>
 1 2022-05-29 00:00:00 HP    03                    1
 2 2022-05-29 00:00:00 MARSH 05                    1
 3 2022-05-29 00:00:00 MARSH 01                    2
 4 2022-05-29 00:00:00 HP    11                    1
 5 2022-05-29 00:00:00 MARSH 08                    1
 6 2022-05-29 00:00:00 HP    04                    1
 7 2022-05-29 00:00:00 HP    10                    1
 8 2022-06-05 00:00:00 SANF  NA                    1
 9 2022-06-05 00:00:00 SANF  01                    2
10 2022-06-05 00:00:00 HF    07                    1
# ℹ 737 more rows
# ℹ Use `print(n = ...)` to see more rows
```
